<?xml version="1.0" standalone="no"?>
<!DOCTYPE svg PUBLIC "-//W3C//DTD SVG 1.1//EN" "http://www.w3.org/Graphics/SVG/1.1/DTD/svg11.dtd">
<svg xmlns="http://www.w3.org/2000/svg">
<metadata>Copyright (C) 2017 by original authors @ fontello.com</metadata>
<defs>
<font id="fontello" horiz-adv-x="1000" >
<font-face font-family="fontello" font-weight="400" font-stretch="normal" units-per-em="1000" ascent="850" descent="-150" />
<missing-glyph horiz-adv-x="1000" />
<glyph glyph-name="beach" unicode="&#xe800;" d="M683 322c69 0 125 56 125 125 0 68-56 124-125 124-69 0-124-56-124-124 0-69 55-125 124-125z m0 196c39 0 72-32 72-71 0-40-33-72-72-72-39 0-71 32-71 72 0 39 32 71 71 71z m0 104c15 0 27 12 27 26v59c0 14-12 26-27 26-15 0-26-12-26-26v-59c0-14 11-26 26-26z m-26-377v-59c0-14 11-26 26-26 15 0 27 12 27 26v59c0 15-12 26-27 26-15 0-26-11-26-26z m201 202c0-15 12-27 27-27h58c15 0 27 12 27 27 0 14-12 26-27 26h-58c-15 0-27-12-27-26z m-435-27h58c15 0 27 12 27 27 0 14-12 26-27 26h-58c-15 0-27-12-27-26 0-15 12-27 27-27z m384-97c-10-11-10-27 0-38l41-41c6-5 12-8 19-8 7 0 14 3 19 8 10 10 10 27 0 37l-42 42c-10 10-27 10-37 0z m-285 247c5-5 12-7 19-7 6 0 13 2 18 7 11 11 11 28 0 38l-41 41c-10 11-27 11-38 0-10-10-10-27 0-37l42-42z m0-247l-42-42c-10-10-10-27 0-37 6-5 12-8 19-8 7 0 14 3 19 8l41 41c11 11 11 27 0 38-10 10-27 10-37 0z m304 240c6 0 13 2 18 7l42 42c10 10 10 27 0 37-11 11-27 11-38 0l-41-41c-10-10-10-27 0-38 5-5 12-7 19-7z m148-543c-42 0-62 8-84 18-25 11-52 23-105 23-53 0-80-12-105-23-22-10-42-18-84-18-41 0-61 8-83 18-25 11-52 23-105 23-53 0-80-12-105-23-23-10-42-18-84-18-23 0-39 3-53 7-23 68-19 144 11 228 13 35 28 65 39 84 27-28 65-79 45-126-5-13 1-29 15-34 3-2 6-3 10-3 10 0 20 7 24 17 26 61-5 121-36 161 29-6 66-24 103-70 5-6 13-9 21-9 5 0 11 1 16 5 12 10 13 26 4 38-52 65-108 84-145 89-15 2-28 2-39 2-3 13-8 31-19 49-20 35-63 79-153 90-14 1-27-9-29-23-2-15 9-28 23-30 53-6 91-27 112-62 2-2 3-5 4-8-5 2-10 3-16 4-54 10-105-1-146-34-11-9-13-25-4-37 5-7 13-10 21-10 5 0 11 2 16 6 47 37 99 27 129 16-12-22-30-55-45-96-28-78-35-155-22-224-19 6-42 11-74 11-15 0-27-12-27-27 0-14 12-26 27-26 41 0 61-9 84-19 24-10 52-22 104-22s81 12 105 22c23 10 42 19 84 19s61-9 84-19c24-10 52-22 104-22 53 0 81 12 105 22 23 10 42 19 84 19 42 0 61-9 84-19 24-10 52-22 105-22 14 0 26 12 26 26 0 15-12 27-26 27z" horiz-adv-x="1000" />

<glyph glyph-name="lake" unicode="&#xe801;" d="M997-77c-16 21-40 33-67 33-26 0-50-12-66-33-10-13-25-20-41-20-12 0-23 4-32 11-7 5-17 4-22-3-6-7-5-17 2-23 15-11 33-17 52-17 26 0 50 12 66 33 10 13 25 20 41 20 16 0 31-7 41-20 6-7 16-9 23-3 7 5 8 15 3 22z m0 106c-16 21-40 33-67 33-26 0-50-12-66-33-10-13-25-20-41-20-12 0-23 4-32 10-3 3-7 6-9 10-10 13-23 22-38 28v77c0 71 27 138 77 189 6 6 6 16-1 23-6 6-16 6-22-1-22-22-40-48-54-75v109c24 6 41 27 41 53v149c0 25-17 46-41 53v14c0 9-7 16-16 16-9 0-16-7-16-16v-16c-21-8-36-28-36-51v-149c0-24 15-44 36-52v-246c0 0 0 0 0 0 0 0 0 0 0 0v-72c-25-1-48-13-63-33-10-13-25-20-41-20-17 0-32 7-41 20-1 0-1 0-1 1-8 10-17 17-28 23 14 74 49 142 102 196 6 7 6 17-1 23-6 6-16 6-22 0-37-38-66-82-86-130v292c32 7 57 36 57 71v121c0 9-8 16-17 16-8 0-16-7-16-16v-121c0-23-18-41-40-41-22 0-40 18-40 41v217c0 22 18 41 40 41 22 0 40-19 40-41v-43c0-9 8-16 16-16 9 0 17 7 17 16v43c0 35-25 64-57 71v20c0 9-7 16-16 16-9 0-16-7-16-16v-20c-32-7-57-36-57-71v-217c0-35 25-64 57-71v-152c-20 69-48 132-84 187-5 8-15 10-22 5-7-5-10-15-5-22 69-106 108-243 111-390-26-1-50-12-65-33-10-13-25-20-41-20-17 0-32 7-41 20-16 20-39 32-64 33v318c26 8 46 32 46 61v184c0 28-19 52-45 60v23c0 9-7 16-16 16s-16-7-16-16v-21c-29-6-51-32-51-62v-124c0-9 7-16 16-16s16 7 16 16v124c0 17 14 31 32 31s31-14 31-31v-184c0-17-14-32-31-32s-32 15-32 32v17c0 9-7 17-16 17s-16-8-16-17v-17c0-31 21-56 50-62v-109c-14 27-32 53-53 75-7 7-17 7-23 1-7-7-7-17 0-23 49-51 76-118 76-189 0 0 0 0 0 0v-77c-15-6-28-15-38-28-2-4-6-7-9-10-9-6-20-10-32-10-16 0-31 7-41 20-16 21-40 33-66 33-26 0-51-12-67-33-5-7-4-17 3-23 7-5 18-4 23 3 10 13 25 21 41 21 16 0 31-8 41-21 16-21 40-33 66-33 19 0 37 7 52 18 5 4 10 10 15 15 10 13 25 21 41 21s31-8 41-21c16-21 40-33 67-33 26 0 50 12 66 33 10 13 24 20 40 21v-49c0 0 0 0 0 0 0 0 0 0 0 0v-25c-26 0-50-12-65-33-10-13-25-20-41-20-17 0-32 7-41 20-16 21-41 33-67 33-26 0-51-12-67-33-2-3-6-7-9-9-9-7-20-11-32-11-16 0-31 7-41 20-16 21-40 33-66 33-26 0-51-12-67-33-5-7-4-17 3-22 7-6 18-4 23 3 10 13 25 20 41 20 16 0 31-7 41-20 16-21 40-33 66-33 19 0 37 6 52 17 5 5 10 10 15 16 10 13 25 20 41 20 16 0 31-7 41-20 16-21 40-33 67-33 26 0 50 12 66 33 10 13 25 20 41 20 16 0 31-7 41-20 0-1 0-1 1-1 16-20 40-32 66-32 26 0 50 12 66 33 10 13 25 20 41 20 7 0 14-1 20-4 8-3 17 1 21 9 3 8-1 17-9 21-10 4-21 6-32 6-26 0-50-12-66-33-10-13-25-20-41-20-17 0-32 7-41 20-1 0-1 1-1 1-9 12-21 21-35 26v31c0 13 1 25 2 37 3-2 6-5 8-9 0 0 0 0 1 0 16-21 40-33 66-33 26 0 50 12 66 33 10 13 25 21 41 21 16 0 31-8 41-21 5-5 10-11 15-15 15-11 33-18 52-18 26 0 50 12 66 33 10 13 25 21 41 21 16 0 31-8 41-21 6-7 16-8 23-3 7 6 8 16 3 23z m-289 403v149c0 12 10 22 22 22 13 0 23-10 23-22v-149c0-13-10-23-23-23-12 0-22 10-22 23z" horiz-adv-x="1000" />

<glyph glyph-name="skiicon" unicode="&#xe802;" d="M666 736c40 0 99-24 99-83s-38-168-38-168 99-65 124-85c51-41 34-79-35-49-112 47-165 70-174 100s-1 89-1 89l-64-27-275 202c0 0-25-18-38-18-13 0-29 10-29 10l31 41-33 40 45-20c-1 0 28 38 28 38s15-9 19-26-3-35-3-35l118-86c0 0 70 77 226 77z m-290-158c0 0 222-155 251-179 30-23 100-84 26-176-72-89-150-176-150-176l-45 19-57 29c0 0 107 134 126 159 19 25 13 46-12 66-25 18-68 43-105 69-38 26-96 105-34 189z m-335-236l766-440c0 0 99-44 152 28" horiz-adv-x="1000" />
</font>
</defs>
</svg>